-------------------------------------------------------------------------------
Test set: cz.vse.kolv.SeznamPrikazuTest
-------------------------------------------------------------------------------
Tests run: 3, Failures: 0, Errors: 0, Skipped: 0, Time elapsed: 0 sec
