-------------------------------------------------------------------------------
Test set: cz.vse.kolv.BatohTest
-------------------------------------------------------------------------------
Tests run: 1, Failures: 0, Errors: 0, Skipped: 0, Time elapsed: 0.068 sec
